…
``` r
levels(gap_growth_new$country)
```

    ## NULL

``` r
gap_growth_new
```

    ## # A tibble: 25 x 4
    ##    country   `1987` `2007` growth
    ##    <chr>      <dbl>  <dbl>  <dbl>
    ##  1 Haiti      1823.  1202. -34.1 
    ##  2 Nicaragua  2956.  2749.  -6.99
    ##  3 Paraguay   3999.  4173.   4.35
    ##  4 Ecuador    6482.  6873.   6.04
    ##  5 Jamaica    6351.  7321.  15.3 
    ##  6 Venezuela  9884. 11416.  15.5 
    ##  7 Brazil     7807.  9066.  16.1 
    ##  8 Peru       6361.  7409.  16.5 
    ##  9 Honduras   3023.  3548.  17.4 
    ## 10 Cuba       7533.  8948.  18.8 
    ## # ... with 15 more rows
…
